406424d7f1ad3855d289588302727af1b768f953866b64250ef6a6f5cb606cdf  tor-browser-linux32-4.0.6_ar.tar.xz
f6e9cac6a7fe0dd8f07f3ae6db4825dd01f3c7107cf5cc76e3225941278465ea  tor-browser-linux32-4.0.6_de.tar.xz
89ce71312f5d73fc2af637a93d7697587b2132fce0e9f6e815b25ddba66518d0  tor-browser-linux32-4.0.6_en-US.tar.xz
aaad62547d6e853ebd7c1b9caf015b7bface28b0361a8cd2237a74b2b0585828  tor-browser-linux32-4.0.6_es-ES.tar.xz
957d2bacb6ec31f5412e5116e638ea8400c87d605a073f821c28920b9ef22ab6  tor-browser-linux32-4.0.6_fa.tar.xz
50c5f81766919b69ee7821bdcd5afb0c8e5502acbadcc5cf8a7584c219aa7591  tor-browser-linux32-4.0.6_fr.tar.xz
58a5e97a20758d403b117739592447b9f9c18f76260014cb1608be7336ae2a0c  tor-browser-linux32-4.0.6_it.tar.xz
70c474140954f0d8c987eeb6d1aa3af3635f6f42d44bc6b6bb27ed8b3849ba7f  tor-browser-linux32-4.0.6_ko.tar.xz
1f1f62672c38a72ee3680ba957bf0e5a283cf53e50ea7c359838e74142d965c6  tor-browser-linux32-4.0.6_nl.tar.xz
1405aa494de347c2969a25b65b63fa298d2e75d5614463bc40d1e750797903cd  tor-browser-linux32-4.0.6_pl.tar.xz
3fea4dd1b4a8454cdd0e1da04db96911ede00eb281c1e0310968ec456e1043ec  tor-browser-linux32-4.0.6_pt-PT.tar.xz
62895f4e44c1697efd6fde5ca5980ba65b567cf715fe2aa0d808857806d32067  tor-browser-linux32-4.0.6_ru.tar.xz
4a317403d798a776845d7cc8a5256106782e688920190507e0de39fe36cc6684  tor-browser-linux32-4.0.6_tr.tar.xz
d199acd8fe1f30b89dbe7e922887c14e420352f35954bed8095bbed1d637c687  tor-browser-linux32-4.0.6_vi.tar.xz
dc36fb7f93eca06a640f645fe8ba78bea97da17163434b00de3471f816f6c98e  tor-browser-linux32-4.0.6_zh-CN.tar.xz
